ID_ORDEM;DataEmissão;DataPrevistaExecução;CódigoFabrico;Quantidade;Unidade;Encomendas
100003363;14/05/2020;14/05/2020;50000106;65000;UN;EC2020/00030
100003364;12/05/2020;15/05/2020;70234285;200000;UN;EC2020/00032,EC2020/00033
